2016-06-16 15:06:09,662 - (Version.java:41) - INFO - HHH000412: Hibernate Core {4.0.0.Final}
2016-06-16 15:06:09,672 - (Environment.java:239) - INFO - HHH000206: hibernate.properties not found
2016-06-16 15:06:09,672 - (Environment.java:342) - INFO - HHH000021: Bytecode provider name : javassist
2016-06-16 15:06:09,682 - (Configuration.java:1956) - INFO - HHH000044: Configuring from URL: file:/C:/Users/Sisbras/Documents/NetBeansProjects/shadowsync/target/classes/hibernate.cfg.xml
2016-06-16 15:06:09,692 - (DTDEntityResolver.java:74) - WARN - HHH000223: Recognized obsolete hibernate namespace http://hibernate.sourceforge.net/. Use namespace http://www.hibernate.org/dtd/ instead. Refer to Hibernate 3.6 Migration Guide!
2016-06-16 15:06:09,712 - (Configuration.java:2061) - INFO - HHH000041: Configured SessionFactory: null
2016-06-16 15:06:09,952 - (DriverManagerConnectionProviderImpl.java:90) - INFO - HHH000402: Using Hibernate built-in connection pool (not for production use!)
2016-06-16 15:06:09,952 - (DriverManagerConnectionProviderImpl.java:110) - INFO - HHH000115: Hibernate connection pool size: 20
2016-06-16 15:06:09,952 - (DriverManagerConnectionProviderImpl.java:113) - INFO - HHH000006: Autocommit mode: false
2016-06-16 15:06:09,952 - (DriverManagerConnectionProviderImpl.java:127) - INFO - HHH000401: using driver [org.postgresql.Driver] at URL [jdbc:postgresql://localhost:5432/DBRIOLUB]
2016-06-16 15:06:09,952 - (DriverManagerConnectionProviderImpl.java:132) - INFO - HHH000046: Connection properties: {user=sa, password=****}
2016-06-16 15:06:10,327 - (Dialect.java:120) - INFO - HHH000400: Using dialect: org.hibernate.dialect.PostgreSQLDialect
2016-06-16 15:06:10,337 - (LobCreatorBuilder.java:120) - INFO - HHH000424: Disabling contextual LOB creation as createClob() method threw error : java.lang.reflect.InvocationTargetException
2016-06-16 15:06:10,337 - (TransactionFactoryInitiator.java:68) - INFO - HHH000399: Using default transaction strategy (direct JDBC transactions)
2016-06-16 15:06:10,347 - (ASTQueryTranslatorFactory.java:48) - INFO - HHH000397: Using ASTQueryTranslatorFactory
2016-06-16 15:06:10,871 - (ConnectionProviderInitiator.java:176) - WARN - HHH000208: org.hibernate.connection.C3P0ConnectionProvider has been deprecated in favor of org.hibernate.service.jdbc.connections.internal.C3P0ConnectionProvider; that provider will be used instead.
2016-06-16 15:06:10,871 - (ConnectionProviderInitiator.java:186) - INFO - HHH000130: Instantiating explicit connection provider: org.hibernate.service.jdbc.connections.internal.C3P0ConnectionProvider
2016-06-16 15:06:10,881 - (C3P0ConnectionProvider.java:128) - INFO - HHH010002: C3P0 using driver: org.postgresql.Driver at URL: jdbc:postgresql://www.portalsisbras.com.br:5432/db_pedido
2016-06-16 15:06:10,881 - (C3P0ConnectionProvider.java:129) - INFO - HHH000046: Connection properties: {user=usr_pedido, password=****, charSet=utf-8}
2016-06-16 15:06:10,881 - (C3P0ConnectionProvider.java:132) - INFO - HHH000006: Autocommit mode: false
2016-06-16 15:06:10,891 - (MLog.java:80) - INFO - MLog clients using log4j logging.
2016-06-16 15:06:10,961 - (C3P0Registry.java:204) - INFO - Initializing c3p0-0.9.1 [built 16-January-2007 14:46:42; debug? true; trace: 10]
2016-06-16 15:06:10,981 - (Dialect.java:120) - INFO - HHH000400: Using dialect: org.hibernate.dialect.PostgreSQLDialect
2016-06-16 15:06:10,981 - (LobCreatorBuilder.java:85) - INFO - HHH000422: Disabling contextual LOB creation as connection was null
2016-06-16 15:06:10,981 - (TransactionFactoryInitiator.java:68) - INFO - HHH000399: Using default transaction strategy (direct JDBC transactions)
2016-06-16 15:06:10,981 - (ASTQueryTranslatorFactory.java:48) - INFO - HHH000397: Using ASTQueryTranslatorFactory
2016-06-16 15:06:11,325 - (AbstractPoolBackedDataSource.java:462) - INFO - Initializing c3p0 pool... com.mchange.v2.c3p0.PoolBackedDataSource@f178eeba [ connectionPoolDataSource -> com.mchange.v2.c3p0.WrapperConnectionPoolDataSource@a5a662f1 [ acquireIncrement -> 2, acquireRetryAttempts -> 30, acquireRetryDelay -> 1000, autoCommitOnClose -> false, automaticTestTable -> null, breakAfterAcquireFailure -> false, checkoutTimeout -> 0, connectionCustomizerClassName -> null, connectionTesterClassName -> com.mchange.v2.c3p0.impl.DefaultConnectionTester, debugUnreturnedConnectionStackTraces -> false, factoryClassLocation -> null, forceIgnoreUnresolvedTransactions -> false, identityToken -> 1hge0wt9hp2wclx1nvxve2|41e6c8a3, idleConnectionTestPeriod -> 3000, initialPoolSize -> 3, maxAdministrativeTaskTime -> 0, maxConnectionAge -> 0, maxIdleTime -> 30, maxIdleTimeExcessConnections -> 0, maxPoolSize -> 20, maxStatements -> 0, maxStatementsPerConnection -> 0, minPoolSize -> 1, nestedDataSource -> com.mchange.v2.c3p0.DriverManagerDataSource@669277de [ description -> null, driverClass -> null, factoryClassLocation -> null, identityToken -> 1hge0wt9hp2wclx1nvxve2|31120da6, jdbcUrl -> jdbc:postgresql://www.portalsisbras.com.br:5432/db_pedido, properties -> {user=******, password=******, charSet=utf-8} ], preferredTestQuery -> null, propertyCycle -> 0, testConnectionOnCheckin -> false, testConnectionOnCheckout -> false, unreturnedConnectionTimeout -> 0, usesTraditionalReflectiveProxies -> false; userOverrides: {} ], dataSourceName -> null, factoryClassLocation -> null, identityToken -> 1hge0wt9hp2wclx1nvxve2|67137929, numHelperThreads -> 3 ]
2016-06-16 15:10:16,182 - (Version.java:37) - INFO - HCANN000001: Hibernate Commons Annotations {4.0.1.Final}
2016-06-16 15:10:16,192 - (Version.java:41) - INFO - HHH000412: Hibernate Core {4.0.0.Final}
2016-06-16 15:10:16,192 - (Environment.java:239) - INFO - HHH000206: hibernate.properties not found
2016-06-16 15:10:16,192 - (Environment.java:342) - INFO - HHH000021: Bytecode provider name : javassist
2016-06-16 15:10:16,202 - (Configuration.java:1956) - INFO - HHH000044: Configuring from URL: file:/C:/Users/Sisbras/Documents/NetBeansProjects/shadowsync/target/classes/hibernate.cfg.xml
2016-06-16 15:10:16,222 - (DTDEntityResolver.java:74) - WARN - HHH000223: Recognized obsolete hibernate namespace http://hibernate.sourceforge.net/. Use namespace http://www.hibernate.org/dtd/ instead. Refer to Hibernate 3.6 Migration Guide!
2016-06-16 15:10:16,232 - (Configuration.java:2061) - INFO - HHH000041: Configured SessionFactory: null
2016-06-16 15:10:16,475 - (DriverManagerConnectionProviderImpl.java:90) - INFO - HHH000402: Using Hibernate built-in connection pool (not for production use!)
2016-06-16 15:10:16,475 - (DriverManagerConnectionProviderImpl.java:110) - INFO - HHH000115: Hibernate connection pool size: 20
2016-06-16 15:10:16,475 - (DriverManagerConnectionProviderImpl.java:113) - INFO - HHH000006: Autocommit mode: false
2016-06-16 15:10:16,475 - (DriverManagerConnectionProviderImpl.java:127) - INFO - HHH000401: using driver [org.postgresql.Driver] at URL [jdbc:postgresql://localhost:5432/DBRIOLUB]
2016-06-16 15:10:16,485 - (DriverManagerConnectionProviderImpl.java:132) - INFO - HHH000046: Connection properties: {user=sa, password=****}
2016-06-16 15:10:16,852 - (Dialect.java:120) - INFO - HHH000400: Using dialect: org.hibernate.dialect.PostgreSQLDialect
2016-06-16 15:10:16,861 - (LobCreatorBuilder.java:120) - INFO - HHH000424: Disabling contextual LOB creation as createClob() method threw error : java.lang.reflect.InvocationTargetException
2016-06-16 15:10:16,865 - (TransactionFactoryInitiator.java:68) - INFO - HHH000399: Using default transaction strategy (direct JDBC transactions)
2016-06-16 15:10:16,868 - (ASTQueryTranslatorFactory.java:48) - INFO - HHH000397: Using ASTQueryTranslatorFactory
2016-06-16 15:10:17,350 - (ConnectionProviderInitiator.java:176) - WARN - HHH000208: org.hibernate.connection.C3P0ConnectionProvider has been deprecated in favor of org.hibernate.service.jdbc.connections.internal.C3P0ConnectionProvider; that provider will be used instead.
2016-06-16 15:10:17,350 - (ConnectionProviderInitiator.java:186) - INFO - HHH000130: Instantiating explicit connection provider: org.hibernate.service.jdbc.connections.internal.C3P0ConnectionProvider
2016-06-16 15:10:17,360 - (C3P0ConnectionProvider.java:128) - INFO - HHH010002: C3P0 using driver: org.postgresql.Driver at URL: jdbc:postgresql://www.portalsisbras.com.br:5432/db_pedido
2016-06-16 15:10:17,360 - (C3P0ConnectionProvider.java:129) - INFO - HHH000046: Connection properties: {user=usr_pedido, password=****, charSet=utf-8}
2016-06-16 15:10:17,360 - (C3P0ConnectionProvider.java:132) - INFO - HHH000006: Autocommit mode: false
2016-06-16 15:10:17,360 - (MLog.java:80) - INFO - MLog clients using log4j logging.
2016-06-16 15:10:17,440 - (C3P0Registry.java:204) - INFO - Initializing c3p0-0.9.1 [built 16-January-2007 14:46:42; debug? true; trace: 10]
2016-06-16 15:10:17,470 - (Dialect.java:120) - INFO - HHH000400: Using dialect: org.hibernate.dialect.PostgreSQLDialect
2016-06-16 15:10:17,470 - (LobCreatorBuilder.java:85) - INFO - HHH000422: Disabling contextual LOB creation as connection was null
2016-06-16 15:10:17,470 - (TransactionFactoryInitiator.java:68) - INFO - HHH000399: Using default transaction strategy (direct JDBC transactions)
2016-06-16 15:10:17,470 - (ASTQueryTranslatorFactory.java:48) - INFO - HHH000397: Using ASTQueryTranslatorFactory
2016-06-16 15:10:17,810 - (AbstractPoolBackedDataSource.java:462) - INFO - Initializing c3p0 pool... com.mchange.v2.c3p0.PoolBackedDataSource@8e175eac [ connectionPoolDataSource -> com.mchange.v2.c3p0.WrapperConnectionPoolDataSource@2829b427 [ acquireIncrement -> 2, acquireRetryAttempts -> 30, acquireRetryDelay -> 1000, autoCommitOnClose -> false, automaticTestTable -> null, breakAfterAcquireFailure -> false, checkoutTimeout -> 0, connectionCustomizerClassName -> null, connectionTesterClassName -> com.mchange.v2.c3p0.impl.DefaultConnectionTester, debugUnreturnedConnectionStackTraces -> false, factoryClassLocation -> null, forceIgnoreUnresolvedTransactions -> false, identityToken -> 1hge0wt9hp31msk1amp696|1cf23278, idleConnectionTestPeriod -> 3000, initialPoolSize -> 3, maxAdministrativeTaskTime -> 0, maxConnectionAge -> 0, maxIdleTime -> 30, maxIdleTimeExcessConnections -> 0, maxPoolSize -> 20, maxStatements -> 0, maxStatementsPerConnection -> 0, minPoolSize -> 1, nestedDataSource -> com.mchange.v2.c3p0.DriverManagerDataSource@6f51f54 [ description -> null, driverClass -> null, factoryClassLocation -> null, identityToken -> 1hge0wt9hp31msk1amp696|68d046ab, jdbcUrl -> jdbc:postgresql://www.portalsisbras.com.br:5432/db_pedido, properties -> {user=******, password=******, charSet=utf-8} ], preferredTestQuery -> null, propertyCycle -> 0, testConnectionOnCheckin -> false, testConnectionOnCheckout -> false, unreturnedConnectionTimeout -> 0, usesTraditionalReflectiveProxies -> false; userOverrides: {} ], dataSourceName -> null, factoryClassLocation -> null, identityToken -> 1hge0wt9hp31msk1amp696|546be0cf, numHelperThreads -> 3 ]
2016-06-16 15:11:26,229 - (Version.java:37) - INFO - HCANN000001: Hibernate Commons Annotations {4.0.1.Final}
2016-06-16 15:11:26,247 - (Version.java:41) - INFO - HHH000412: Hibernate Core {4.0.0.Final}
2016-06-16 15:11:26,248 - (Environment.java:239) - INFO - HHH000206: hibernate.properties not found
2016-06-16 15:11:26,250 - (Environment.java:342) - INFO - HHH000021: Bytecode provider name : javassist
2016-06-16 15:11:26,273 - (Configuration.java:1956) - INFO - HHH000044: Configuring from URL: file:/C:/Users/Sisbras/Documents/NetBeansProjects/shadowsync/target/classes/hibernate.cfg.xml
2016-06-16 15:11:26,293 - (DTDEntityResolver.java:74) - WARN - HHH000223: Recognized obsolete hibernate namespace http://hibernate.sourceforge.net/. Use namespace http://www.hibernate.org/dtd/ instead. Refer to Hibernate 3.6 Migration Guide!
2016-06-16 15:11:26,314 - (Configuration.java:2061) - INFO - HHH000041: Configured SessionFactory: null
2016-06-16 15:11:26,719 - (DriverManagerConnectionProviderImpl.java:90) - INFO - HHH000402: Using Hibernate built-in connection pool (not for production use!)
2016-06-16 15:11:26,724 - (DriverManagerConnectionProviderImpl.java:110) - INFO - HHH000115: Hibernate connection pool size: 20
2016-06-16 15:11:26,724 - (DriverManagerConnectionProviderImpl.java:113) - INFO - HHH000006: Autocommit mode: false
2016-06-16 15:11:26,725 - (DriverManagerConnectionProviderImpl.java:127) - INFO - HHH000401: using driver [org.postgresql.Driver] at URL [jdbc:postgresql://localhost:5432/DBRIOLUB]
2016-06-16 15:11:26,725 - (DriverManagerConnectionProviderImpl.java:132) - INFO - HHH000046: Connection properties: {user=sa, password=****}
2016-06-16 15:11:27,265 - (Dialect.java:120) - INFO - HHH000400: Using dialect: org.hibernate.dialect.PostgreSQLDialect
2016-06-16 15:11:27,279 - (LobCreatorBuilder.java:120) - INFO - HHH000424: Disabling contextual LOB creation as createClob() method threw error : java.lang.reflect.InvocationTargetException
2016-06-16 15:11:27,287 - (TransactionFactoryInitiator.java:68) - INFO - HHH000399: Using default transaction strategy (direct JDBC transactions)
2016-06-16 15:11:27,292 - (ASTQueryTranslatorFactory.java:48) - INFO - HHH000397: Using ASTQueryTranslatorFactory
2016-06-16 15:11:28,134 - (ConnectionProviderInitiator.java:176) - WARN - HHH000208: org.hibernate.connection.C3P0ConnectionProvider has been deprecated in favor of org.hibernate.service.jdbc.connections.internal.C3P0ConnectionProvider; that provider will be used instead.
2016-06-16 15:11:28,135 - (ConnectionProviderInitiator.java:186) - INFO - HHH000130: Instantiating explicit connection provider: org.hibernate.service.jdbc.connections.internal.C3P0ConnectionProvider
2016-06-16 15:11:28,150 - (C3P0ConnectionProvider.java:128) - INFO - HHH010002: C3P0 using driver: org.postgresql.Driver at URL: jdbc:postgresql://www.portalsisbras.com.br:5432/db_pedido
2016-06-16 15:11:28,150 - (C3P0ConnectionProvider.java:129) - INFO - HHH000046: Connection properties: {user=usr_pedido, password=****, charSet=utf-8}
2016-06-16 15:11:28,151 - (C3P0ConnectionProvider.java:132) - INFO - HHH000006: Autocommit mode: false
2016-06-16 15:11:28,166 - (MLog.java:80) - INFO - MLog clients using log4j logging.
2016-06-16 15:11:28,280 - (C3P0Registry.java:204) - INFO - Initializing c3p0-0.9.1 [built 16-January-2007 14:46:42; debug? true; trace: 10]
2016-06-16 15:11:28,359 - (Dialect.java:120) - INFO - HHH000400: Using dialect: org.hibernate.dialect.PostgreSQLDialect
2016-06-16 15:11:28,360 - (LobCreatorBuilder.java:85) - INFO - HHH000422: Disabling contextual LOB creation as connection was null
2016-06-16 15:11:28,361 - (TransactionFactoryInitiator.java:68) - INFO - HHH000399: Using default transaction strategy (direct JDBC transactions)
2016-06-16 15:11:28,361 - (ASTQueryTranslatorFactory.java:48) - INFO - HHH000397: Using ASTQueryTranslatorFactory
2016-06-16 15:11:29,100 - (AbstractPoolBackedDataSource.java:462) - INFO - Initializing c3p0 pool... com.mchange.v2.c3p0.PoolBackedDataSource@f496a7a1 [ connectionPoolDataSource -> com.mchange.v2.c3p0.WrapperConnectionPoolDataSource@12fca163 [ acquireIncrement -> 2, acquireRetryAttempts -> 30, acquireRetryDelay -> 1000, autoCommitOnClose -> false, automaticTestTable -> null, breakAfterAcquireFailure -> false, checkoutTimeout -> 0, connectionCustomizerClassName -> null, connectionTesterClassName -> com.mchange.v2.c3p0.impl.DefaultConnectionTester, debugUnreturnedConnectionStackTraces -> false, factoryClassLocation -> null, forceIgnoreUnresolvedTransactions -> false, identityToken -> 1hge0wt9hp335fe1oijrkg|53e4072b, idleConnectionTestPeriod -> 3000, initialPoolSize -> 3, maxAdministrativeTaskTime -> 0, maxConnectionAge -> 0, maxIdleTime -> 30, maxIdleTimeExcessConnections -> 0, maxPoolSize -> 20, maxStatements -> 0, maxStatementsPerConnection -> 0, minPoolSize -> 1, nestedDataSource -> com.mchange.v2.c3p0.DriverManagerDataSource@9fa268db [ description -> null, driverClass -> null, factoryClassLocation -> null, identityToken -> 1hge0wt9hp335fe1oijrkg|10754b34, jdbcUrl -> jdbc:postgresql://www.portalsisbras.com.br:5432/db_pedido, properties -> {user=******, password=******, charSet=utf-8} ], preferredTestQuery -> null, propertyCycle -> 0, testConnectionOnCheckin -> false, testConnectionOnCheckout -> false, unreturnedConnectionTimeout -> 0, usesTraditionalReflectiveProxies -> false; userOverrides: {} ], dataSourceName -> null, factoryClassLocation -> null, identityToken -> 1hge0wt9hp335fe1oijrkg|602c0f7, numHelperThreads -> 3 ]
2016-06-16 15:14:26,634 - (Version.java:37) - INFO - HCANN000001: Hibernate Commons Annotations {4.0.1.Final}
2016-06-16 15:14:26,661 - (Version.java:41) - INFO - HHH000412: Hibernate Core {4.0.0.Final}
2016-06-16 15:14:26,666 - (Environment.java:239) - INFO - HHH000206: hibernate.properties not found
2016-06-16 15:14:26,669 - (Environment.java:342) - INFO - HHH000021: Bytecode provider name : javassist
2016-06-16 15:14:26,709 - (Configuration.java:1956) - INFO - HHH000044: Configuring from URL: file:/C:/Users/Sisbras/Documents/NetBeansProjects/shadowsync/target/classes/hibernate.cfg.xml
2016-06-16 15:14:26,746 - (DTDEntityResolver.java:74) - WARN - HHH000223: Recognized obsolete hibernate namespace http://hibernate.sourceforge.net/. Use namespace http://www.hibernate.org/dtd/ instead. Refer to Hibernate 3.6 Migration Guide!
2016-06-16 15:14:26,776 - (Configuration.java:2061) - INFO - HHH000041: Configured SessionFactory: null
2016-06-16 15:14:27,881 - (DriverManagerConnectionProviderImpl.java:90) - INFO - HHH000402: Using Hibernate built-in connection pool (not for production use!)
2016-06-16 15:14:27,888 - (DriverManagerConnectionProviderImpl.java:110) - INFO - HHH000115: Hibernate connection pool size: 20
2016-06-16 15:14:27,888 - (DriverManagerConnectionProviderImpl.java:113) - INFO - HHH000006: Autocommit mode: false
2016-06-16 15:14:27,889 - (DriverManagerConnectionProviderImpl.java:127) - INFO - HHH000401: using driver [org.postgresql.Driver] at URL [jdbc:postgresql://localhost:5432/DBRIOLUB]
2016-06-16 15:14:27,890 - (DriverManagerConnectionProviderImpl.java:132) - INFO - HHH000046: Connection properties: {user=sa, password=****}
2016-06-16 15:14:28,885 - (Dialect.java:120) - INFO - HHH000400: Using dialect: org.hibernate.dialect.PostgreSQLDialect
2016-06-16 15:14:28,913 - (LobCreatorBuilder.java:120) - INFO - HHH000424: Disabling contextual LOB creation as createClob() method threw error : java.lang.reflect.InvocationTargetException
2016-06-16 15:14:28,931 - (TransactionFactoryInitiator.java:68) - INFO - HHH000399: Using default transaction strategy (direct JDBC transactions)
2016-06-16 15:14:28,942 - (ASTQueryTranslatorFactory.java:48) - INFO - HHH000397: Using ASTQueryTranslatorFactory
2016-06-16 15:14:32,647 - (ConnectionProviderInitiator.java:176) - WARN - HHH000208: org.hibernate.connection.C3P0ConnectionProvider has been deprecated in favor of org.hibernate.service.jdbc.connections.internal.C3P0ConnectionProvider; that provider will be used instead.
2016-06-16 15:14:32,648 - (ConnectionProviderInitiator.java:186) - INFO - HHH000130: Instantiating explicit connection provider: org.hibernate.service.jdbc.connections.internal.C3P0ConnectionProvider
2016-06-16 15:14:32,669 - (C3P0ConnectionProvider.java:128) - INFO - HHH010002: C3P0 using driver: org.postgresql.Driver at URL: jdbc:postgresql://www.portalsisbras.com.br:5432/db_pedido
2016-06-16 15:14:32,669 - (C3P0ConnectionProvider.java:129) - INFO - HHH000046: Connection properties: {user=usr_pedido, password=****, charSet=utf-8}
2016-06-16 15:14:32,670 - (C3P0ConnectionProvider.java:132) - INFO - HHH000006: Autocommit mode: false
2016-06-16 15:14:32,694 - (MLog.java:80) - INFO - MLog clients using log4j logging.
2016-06-16 15:14:32,949 - (C3P0Registry.java:204) - INFO - Initializing c3p0-0.9.1 [built 16-January-2007 14:46:42; debug? true; trace: 10]
2016-06-16 15:14:33,134 - (Dialect.java:120) - INFO - HHH000400: Using dialect: org.hibernate.dialect.PostgreSQLDialect
2016-06-16 15:14:33,135 - (LobCreatorBuilder.java:85) - INFO - HHH000422: Disabling contextual LOB creation as connection was null
2016-06-16 15:14:33,136 - (TransactionFactoryInitiator.java:68) - INFO - HHH000399: Using default transaction strategy (direct JDBC transactions)
2016-06-16 15:14:33,137 - (ASTQueryTranslatorFactory.java:48) - INFO - HHH000397: Using ASTQueryTranslatorFactory
2016-06-16 15:16:43,042 - (Version.java:37) - INFO - HCANN000001: Hibernate Commons Annotations {4.0.1.Final}
2016-06-16 15:16:43,053 - (Version.java:41) - INFO - HHH000412: Hibernate Core {4.0.0.Final}
2016-06-16 15:16:43,054 - (Environment.java:239) - INFO - HHH000206: hibernate.properties not found
2016-06-16 15:16:43,055 - (Environment.java:342) - INFO - HHH000021: Bytecode provider name : javassist
2016-06-16 15:16:43,079 - (Configuration.java:1956) - INFO - HHH000044: Configuring from URL: file:/C:/Users/Sisbras/Documents/NetBeansProjects/shadowsync/target/classes/hibernate.cfg.xml
2016-06-16 15:16:43,099 - (DTDEntityResolver.java:74) - WARN - HHH000223: Recognized obsolete hibernate namespace http://hibernate.sourceforge.net/. Use namespace http://www.hibernate.org/dtd/ instead. Refer to Hibernate 3.6 Migration Guide!
2016-06-16 15:16:43,116 - (Configuration.java:2061) - INFO - HHH000041: Configured SessionFactory: null
2016-06-16 15:16:43,377 - (DriverManagerConnectionProviderImpl.java:90) - INFO - HHH000402: Using Hibernate built-in connection pool (not for production use!)
2016-06-16 15:16:43,381 - (DriverManagerConnectionProviderImpl.java:110) - INFO - HHH000115: Hibernate connection pool size: 20
2016-06-16 15:16:43,381 - (DriverManagerConnectionProviderImpl.java:113) - INFO - HHH000006: Autocommit mode: false
2016-06-16 15:16:43,381 - (DriverManagerConnectionProviderImpl.java:127) - INFO - HHH000401: using driver [org.postgresql.Driver] at URL [jdbc:postgresql://localhost:5432/DBRIOLUB]
2016-06-16 15:16:43,381 - (DriverManagerConnectionProviderImpl.java:132) - INFO - HHH000046: Connection properties: {user=sa, password=****}
2016-06-16 15:16:43,778 - (Dialect.java:120) - INFO - HHH000400: Using dialect: org.hibernate.dialect.PostgreSQLDialect
2016-06-16 15:16:43,787 - (LobCreatorBuilder.java:120) - INFO - HHH000424: Disabling contextual LOB creation as createClob() method threw error : java.lang.reflect.InvocationTargetException
2016-06-16 15:16:43,792 - (TransactionFactoryInitiator.java:68) - INFO - HHH000399: Using default transaction strategy (direct JDBC transactions)
2016-06-16 15:16:43,796 - (ASTQueryTranslatorFactory.java:48) - INFO - HHH000397: Using ASTQueryTranslatorFactory
2016-06-16 15:16:44,353 - (ConnectionProviderInitiator.java:176) - WARN - HHH000208: org.hibernate.connection.C3P0ConnectionProvider has been deprecated in favor of org.hibernate.service.jdbc.connections.internal.C3P0ConnectionProvider; that provider will be used instead.
2016-06-16 15:16:44,354 - (ConnectionProviderInitiator.java:186) - INFO - HHH000130: Instantiating explicit connection provider: org.hibernate.service.jdbc.connections.internal.C3P0ConnectionProvider
2016-06-16 15:16:44,368 - (C3P0ConnectionProvider.java:128) - INFO - HHH010002: C3P0 using driver: org.postgresql.Driver at URL: jdbc:postgresql://www.portalsisbras.com.br:5432/db_pedido
2016-06-16 15:16:44,368 - (C3P0ConnectionProvider.java:129) - INFO - HHH000046: Connection properties: {user=usr_pedido, password=****, charSet=utf-8}
2016-06-16 15:16:44,368 - (C3P0ConnectionProvider.java:132) - INFO - HHH000006: Autocommit mode: false
2016-06-16 15:16:44,377 - (MLog.java:80) - INFO - MLog clients using log4j logging.
2016-06-16 15:16:44,460 - (C3P0Registry.java:204) - INFO - Initializing c3p0-0.9.1 [built 16-January-2007 14:46:42; debug? true; trace: 10]
2016-06-16 15:16:44,500 - (Dialect.java:120) - INFO - HHH000400: Using dialect: org.hibernate.dialect.PostgreSQLDialect
2016-06-16 15:16:44,500 - (LobCreatorBuilder.java:85) - INFO - HHH000422: Disabling contextual LOB creation as connection was null
2016-06-16 15:16:44,501 - (TransactionFactoryInitiator.java:68) - INFO - HHH000399: Using default transaction strategy (direct JDBC transactions)
2016-06-16 15:16:44,501 - (ASTQueryTranslatorFactory.java:48) - INFO - HHH000397: Using ASTQueryTranslatorFactory
2016-06-16 15:16:44,888 - (AbstractPoolBackedDataSource.java:462) - INFO - Initializing c3p0 pool... com.mchange.v2.c3p0.PoolBackedDataSource@f698ce4f [ connectionPoolDataSource -> com.mchange.v2.c3p0.WrapperConnectionPoolDataSource@14de15ce [ acquireIncrement -> 2, acquireRetryAttempts -> 30, acquireRetryDelay -> 1000, autoCommitOnClose -> false, automaticTestTable -> null, breakAfterAcquireFailure -> false, checkoutTimeout -> 0, connectionCustomizerClassName -> null, connectionTesterClassName -> com.mchange.v2.c3p0.impl.DefaultConnectionTester, debugUnreturnedConnectionStackTraces -> false, factoryClassLocation -> null, forceIgnoreUnresolvedTransactions -> false, identityToken -> 1hge0wt9hp39xeu1g612ya|2da1acde, idleConnectionTestPeriod -> 3000, initialPoolSize -> 3, maxAdministrativeTaskTime -> 0, maxConnectionAge -> 0, maxIdleTime -> 30, maxIdleTimeExcessConnections -> 0, maxPoolSize -> 20, maxStatements -> 0, maxStatementsPerConnection -> 0, minPoolSize -> 1, nestedDataSource -> com.mchange.v2.c3p0.DriverManagerDataSource@f4c1e351 [ description -> null, driverClass -> null, factoryClassLocation -> null, identityToken -> 1hge0wt9hp39xeu1g612ya|66b789e1, jdbcUrl -> jdbc:postgresql://www.portalsisbras.com.br:5432/db_pedido, properties -> {user=******, password=******, charSet=utf-8} ], preferredTestQuery -> null, propertyCycle -> 0, testConnectionOnCheckin -> false, testConnectionOnCheckout -> false, unreturnedConnectionTimeout -> 0, usesTraditionalReflectiveProxies -> false; userOverrides: {} ], dataSourceName -> null, factoryClassLocation -> null, identityToken -> 1hge0wt9hp39xeu1g612ya|53e09be7, numHelperThreads -> 3 ]
2016-06-16 15:20:13,258 - (Version.java:37) - INFO - HCANN000001: Hibernate Commons Annotations {4.0.1.Final}
2016-06-16 15:20:13,268 - (Version.java:41) - INFO - HHH000412: Hibernate Core {4.0.0.Final}
2016-06-16 15:20:13,268 - (Environment.java:239) - INFO - HHH000206: hibernate.properties not found
2016-06-16 15:20:13,268 - (Environment.java:342) - INFO - HHH000021: Bytecode provider name : javassist
2016-06-16 15:20:13,288 - (Configuration.java:1956) - INFO - HHH000044: Configuring from URL: file:/C:/Users/Sisbras/Documents/NetBeansProjects/shadowsync/target/classes/hibernate.cfg.xml
2016-06-16 15:20:13,298 - (DTDEntityResolver.java:74) - WARN - HHH000223: Recognized obsolete hibernate namespace http://hibernate.sourceforge.net/. Use namespace http://www.hibernate.org/dtd/ instead. Refer to Hibernate 3.6 Migration Guide!
2016-06-16 15:20:13,318 - (Configuration.java:2061) - INFO - HHH000041: Configured SessionFactory: null
2016-06-16 15:20:13,552 - (DriverManagerConnectionProviderImpl.java:90) - INFO - HHH000402: Using Hibernate built-in connection pool (not for production use!)
2016-06-16 15:20:13,552 - (DriverManagerConnectionProviderImpl.java:110) - INFO - HHH000115: Hibernate connection pool size: 20
2016-06-16 15:20:13,562 - (DriverManagerConnectionProviderImpl.java:113) - INFO - HHH000006: Autocommit mode: false
2016-06-16 15:20:13,562 - (DriverManagerConnectionProviderImpl.java:127) - INFO - HHH000401: using driver [org.postgresql.Driver] at URL [jdbc:postgresql://192.168.0.254:5432/DBRIOLUB]
2016-06-16 15:20:13,562 - (DriverManagerConnectionProviderImpl.java:132) - INFO - HHH000046: Connection properties: {user=sa, password=****}
2016-06-16 15:20:16,549 - (Dialect.java:120) - INFO - HHH000400: Using dialect: org.hibernate.dialect.PostgreSQLDialect
2016-06-16 15:20:16,569 - (LobCreatorBuilder.java:120) - INFO - HHH000424: Disabling contextual LOB creation as createClob() method threw error : java.lang.reflect.InvocationTargetException
2016-06-16 15:20:16,579 - (TransactionFactoryInitiator.java:68) - INFO - HHH000399: Using default transaction strategy (direct JDBC transactions)
2016-06-16 15:20:16,579 - (ASTQueryTranslatorFactory.java:48) - INFO - HHH000397: Using ASTQueryTranslatorFactory
2016-06-16 15:20:17,062 - (ConnectionProviderInitiator.java:176) - WARN - HHH000208: org.hibernate.connection.C3P0ConnectionProvider has been deprecated in favor of org.hibernate.service.jdbc.connections.internal.C3P0ConnectionProvider; that provider will be used instead.
2016-06-16 15:20:17,062 - (ConnectionProviderInitiator.java:186) - INFO - HHH000130: Instantiating explicit connection provider: org.hibernate.service.jdbc.connections.internal.C3P0ConnectionProvider
2016-06-16 15:20:17,072 - (C3P0ConnectionProvider.java:128) - INFO - HHH010002: C3P0 using driver: org.postgresql.Driver at URL: jdbc:postgresql://www.portalsisbras.com.br:5432/db_pedido
2016-06-16 15:20:17,072 - (C3P0ConnectionProvider.java:129) - INFO - HHH000046: Connection properties: {user=usr_pedido, password=****, charSet=utf-8}
2016-06-16 15:20:17,072 - (C3P0ConnectionProvider.java:132) - INFO - HHH000006: Autocommit mode: false
2016-06-16 15:20:17,085 - (MLog.java:80) - INFO - MLog clients using log4j logging.
2016-06-16 15:20:17,154 - (C3P0Registry.java:204) - INFO - Initializing c3p0-0.9.1 [built 16-January-2007 14:46:42; debug? true; trace: 10]
2016-06-16 15:20:17,184 - (Dialect.java:120) - INFO - HHH000400: Using dialect: org.hibernate.dialect.PostgreSQLDialect
2016-06-16 15:20:17,184 - (LobCreatorBuilder.java:85) - INFO - HHH000422: Disabling contextual LOB creation as connection was null
2016-06-16 15:20:17,184 - (TransactionFactoryInitiator.java:68) - INFO - HHH000399: Using default transaction strategy (direct JDBC transactions)
2016-06-16 15:20:17,184 - (ASTQueryTranslatorFactory.java:48) - INFO - HHH000397: Using ASTQueryTranslatorFactory
2016-06-16 15:20:17,524 - (AbstractPoolBackedDataSource.java:462) - INFO - Initializing c3p0 pool... com.mchange.v2.c3p0.PoolBackedDataSource@671dfa3b [ connectionPoolDataSource -> com.mchange.v2.c3p0.WrapperConnectionPoolDataSource@5116cbdd [ acquireIncrement -> 2, acquireRetryAttempts -> 30, acquireRetryDelay -> 1000, autoCommitOnClose -> false, automaticTestTable -> null, breakAfterAcquireFailure -> false, checkoutTimeout -> 0, connectionCustomizerClassName -> null, connectionTesterClassName -> com.mchange.v2.c3p0.impl.DefaultConnectionTester, debugUnreturnedConnectionStackTraces -> false, factoryClassLocation -> null, forceIgnoreUnresolvedTransactions -> false, identityToken -> 1hge0wt9hp3ehjf1r93tgu|6a72d6d0, idleConnectionTestPeriod -> 3000, initialPoolSize -> 3, maxAdministrativeTaskTime -> 0, maxConnectionAge -> 0, maxIdleTime -> 30, maxIdleTimeExcessConnections -> 0, maxPoolSize -> 20, maxStatements -> 0, maxStatementsPerConnection -> 0, minPoolSize -> 1, nestedDataSource -> com.mchange.v2.c3p0.DriverManagerDataSource@15f3ed9d [ description -> null, driverClass -> null, factoryClassLocation -> null, identityToken -> 1hge0wt9hp3ehjf1r93tgu|78bdccef, jdbcUrl -> jdbc:postgresql://www.portalsisbras.com.br:5432/db_pedido, properties -> {user=******, password=******, charSet=utf-8} ], preferredTestQuery -> null, propertyCycle -> 0, testConnectionOnCheckin -> false, testConnectionOnCheckout -> false, unreturnedConnectionTimeout -> 0, usesTraditionalReflectiveProxies -> false; userOverrides: {} ], dataSourceName -> null, factoryClassLocation -> null, identityToken -> 1hge0wt9hp3ehjf1r93tgu|5fb3917c, numHelperThreads -> 3 ]
2016-06-16 15:21:10,090 - (Version.java:37) - INFO - HCANN000001: Hibernate Commons Annotations {4.0.1.Final}
2016-06-16 15:21:10,100 - (Version.java:41) - INFO - HHH000412: Hibernate Core {4.0.0.Final}
2016-06-16 15:21:10,100 - (Environment.java:239) - INFO - HHH000206: hibernate.properties not found
2016-06-16 15:21:10,100 - (Environment.java:342) - INFO - HHH000021: Bytecode provider name : javassist
2016-06-16 15:21:10,120 - (Configuration.java:1956) - INFO - HHH000044: Configuring from URL: file:/C:/Users/Sisbras/Documents/NetBeansProjects/shadowsync/target/classes/hibernate.cfg.xml
2016-06-16 15:21:10,130 - (DTDEntityResolver.java:74) - WARN - HHH000223: Recognized obsolete hibernate namespace http://hibernate.sourceforge.net/. Use namespace http://www.hibernate.org/dtd/ instead. Refer to Hibernate 3.6 Migration Guide!
2016-06-16 15:21:10,150 - (Configuration.java:2061) - INFO - HHH000041: Configured SessionFactory: null
2016-06-16 15:21:10,380 - (DriverManagerConnectionProviderImpl.java:90) - INFO - HHH000402: Using Hibernate built-in connection pool (not for production use!)
2016-06-16 15:21:10,380 - (DriverManagerConnectionProviderImpl.java:110) - INFO - HHH000115: Hibernate connection pool size: 20
2016-06-16 15:21:10,380 - (DriverManagerConnectionProviderImpl.java:113) - INFO - HHH000006: Autocommit mode: false
2016-06-16 15:21:10,380 - (DriverManagerConnectionProviderImpl.java:127) - INFO - HHH000401: using driver [org.postgresql.Driver] at URL [jdbc:postgresql://192.168.0.254:5432/DBRIOLUB]
2016-06-16 15:21:10,380 - (DriverManagerConnectionProviderImpl.java:132) - INFO - HHH000046: Connection properties: {user=sa, password=****}
2016-06-16 15:21:13,757 - (Dialect.java:120) - INFO - HHH000400: Using dialect: org.hibernate.dialect.PostgreSQLDialect
2016-06-16 15:21:13,777 - (LobCreatorBuilder.java:120) - INFO - HHH000424: Disabling contextual LOB creation as createClob() method threw error : java.lang.reflect.InvocationTargetException
2016-06-16 15:21:13,777 - (TransactionFactoryInitiator.java:68) - INFO - HHH000399: Using default transaction strategy (direct JDBC transactions)
2016-06-16 15:21:13,787 - (ASTQueryTranslatorFactory.java:48) - INFO - HHH000397: Using ASTQueryTranslatorFactory
2016-06-16 15:21:14,258 - (ConnectionProviderInitiator.java:176) - WARN - HHH000208: org.hibernate.connection.C3P0ConnectionProvider has been deprecated in favor of org.hibernate.service.jdbc.connections.internal.C3P0ConnectionProvider; that provider will be used instead.
2016-06-16 15:21:14,258 - (ConnectionProviderInitiator.java:186) - INFO - HHH000130: Instantiating explicit connection provider: org.hibernate.service.jdbc.connections.internal.C3P0ConnectionProvider
2016-06-16 15:21:14,278 - (C3P0ConnectionProvider.java:128) - INFO - HHH010002: C3P0 using driver: org.postgresql.Driver at URL: jdbc:postgresql://www.portalsisbras.com.br:5432/db_pedido
2016-06-16 15:21:14,278 - (C3P0ConnectionProvider.java:129) - INFO - HHH000046: Connection properties: {user=usr_pedido, password=****, charSet=utf-8}
2016-06-16 15:21:14,278 - (C3P0ConnectionProvider.java:132) - INFO - HHH000006: Autocommit mode: false
2016-06-16 15:21:14,278 - (MLog.java:80) - INFO - MLog clients using log4j logging.
2016-06-16 15:21:14,358 - (C3P0Registry.java:204) - INFO - Initializing c3p0-0.9.1 [built 16-January-2007 14:46:42; debug? true; trace: 10]
2016-06-16 15:21:14,398 - (Dialect.java:120) - INFO - HHH000400: Using dialect: org.hibernate.dialect.PostgreSQLDialect
2016-06-16 15:21:14,398 - (LobCreatorBuilder.java:85) - INFO - HHH000422: Disabling contextual LOB creation as connection was null
2016-06-16 15:21:14,398 - (TransactionFactoryInitiator.java:68) - INFO - HHH000399: Using default transaction strategy (direct JDBC transactions)
2016-06-16 15:21:14,398 - (ASTQueryTranslatorFactory.java:48) - INFO - HHH000397: Using ASTQueryTranslatorFactory
2016-06-16 15:21:14,740 - (AbstractPoolBackedDataSource.java:462) - INFO - Initializing c3p0 pool... com.mchange.v2.c3p0.PoolBackedDataSource@9f974c4c [ connectionPoolDataSource -> com.mchange.v2.c3p0.WrapperConnectionPoolDataSource@da77ac0f [ acquireIncrement -> 2, acquireRetryAttempts -> 30, acquireRetryDelay -> 1000, autoCommitOnClose -> false, automaticTestTable -> null, breakAfterAcquireFailure -> false, checkoutTimeout -> 0, connectionCustomizerClassName -> null, connectionTesterClassName -> com.mchange.v2.c3p0.impl.DefaultConnectionTester, debugUnreturnedConnectionStackTraces -> false, factoryClassLocation -> null, forceIgnoreUnresolvedTransactions -> false, identityToken -> 1hge0wt9hp3fpoa1r1kslu|1569713a, idleConnectionTestPeriod -> 3000, initialPoolSize -> 3, maxAdministrativeTaskTime -> 0, maxConnectionAge -> 0, maxIdleTime -> 30, maxIdleTimeExcessConnections -> 0, maxPoolSize -> 20, maxStatements -> 0, maxStatementsPerConnection -> 0, minPoolSize -> 1, nestedDataSource -> com.mchange.v2.c3p0.DriverManagerDataSource@73c84e9c [ description -> null, driverClass -> null, factoryClassLocation -> null, identityToken -> 1hge0wt9hp3fpoa1r1kslu|75184144, jdbcUrl -> jdbc:postgresql://www.portalsisbras.com.br:5432/db_pedido, properties -> {user=******, password=******, charSet=utf-8} ], preferredTestQuery -> null, propertyCycle -> 0, testConnectionOnCheckin -> false, testConnectionOnCheckout -> false, unreturnedConnectionTimeout -> 0, usesTraditionalReflectiveProxies -> false; userOverrides: {} ], dataSourceName -> null, factoryClassLocation -> null, identityToken -> 1hge0wt9hp3fpoa1r1kslu|3fb7b71f, numHelperThreads -> 3 ]
2016-06-16 16:22:43,758 - (Version.java:37) - INFO - HCANN000001: Hibernate Commons Annotations {4.0.1.Final}
2016-06-16 16:22:43,768 - (Version.java:41) - INFO - HHH000412: Hibernate Core {4.0.0.Final}
2016-06-16 16:22:43,778 - (Environment.java:239) - INFO - HHH000206: hibernate.properties not found
2016-06-16 16:22:43,778 - (Environment.java:342) - INFO - HHH000021: Bytecode provider name : javassist
2016-06-16 16:22:43,788 - (Configuration.java:1956) - INFO - HHH000044: Configuring from URL: file:/C:/Users/Sisbras/Documents/NetBeansProjects/shadowsync/target/classes/hibernate.cfg.xml
2016-06-16 16:22:43,798 - (DTDEntityResolver.java:74) - WARN - HHH000223: Recognized obsolete hibernate namespace http://hibernate.sourceforge.net/. Use namespace http://www.hibernate.org/dtd/ instead. Refer to Hibernate 3.6 Migration Guide!
2016-06-16 16:22:43,808 - (Configuration.java:2061) - INFO - HHH000041: Configured SessionFactory: null
2016-06-16 16:22:44,058 - (DriverManagerConnectionProviderImpl.java:90) - INFO - HHH000402: Using Hibernate built-in connection pool (not for production use!)
2016-06-16 16:22:44,058 - (DriverManagerConnectionProviderImpl.java:110) - INFO - HHH000115: Hibernate connection pool size: 20
2016-06-16 16:22:44,058 - (DriverManagerConnectionProviderImpl.java:113) - INFO - HHH000006: Autocommit mode: false
2016-06-16 16:22:44,058 - (DriverManagerConnectionProviderImpl.java:127) - INFO - HHH000401: using driver [org.postgresql.Driver] at URL [jdbc:postgresql://192.168.0.254:5432/DBRIOLUB]
2016-06-16 16:22:44,058 - (DriverManagerConnectionProviderImpl.java:132) - INFO - HHH000046: Connection properties: {user=sa, password=****}
2016-06-16 16:22:47,426 - (Dialect.java:120) - INFO - HHH000400: Using dialect: org.hibernate.dialect.PostgreSQLDialect
2016-06-16 16:22:47,436 - (LobCreatorBuilder.java:120) - INFO - HHH000424: Disabling contextual LOB creation as createClob() method threw error : java.lang.reflect.InvocationTargetException
2016-06-16 16:22:47,436 - (TransactionFactoryInitiator.java:68) - INFO - HHH000399: Using default transaction strategy (direct JDBC transactions)
2016-06-16 16:22:47,446 - (ASTQueryTranslatorFactory.java:48) - INFO - HHH000397: Using ASTQueryTranslatorFactory
2016-06-16 16:22:47,916 - (ConnectionProviderInitiator.java:176) - WARN - HHH000208: org.hibernate.connection.C3P0ConnectionProvider has been deprecated in favor of org.hibernate.service.jdbc.connections.internal.C3P0ConnectionProvider; that provider will be used instead.
2016-06-16 16:22:47,916 - (ConnectionProviderInitiator.java:186) - INFO - HHH000130: Instantiating explicit connection provider: org.hibernate.service.jdbc.connections.internal.C3P0ConnectionProvider
2016-06-16 16:22:47,926 - (C3P0ConnectionProvider.java:128) - INFO - HHH010002: C3P0 using driver: org.postgresql.Driver at URL: jdbc:postgresql://www.portalsisbras.com.br:5432/db_pedido
2016-06-16 16:22:47,926 - (C3P0ConnectionProvider.java:129) - INFO - HHH000046: Connection properties: {user=usr_pedido, password=****, charSet=utf-8}
2016-06-16 16:22:47,926 - (C3P0ConnectionProvider.java:132) - INFO - HHH000006: Autocommit mode: false
2016-06-16 16:22:47,926 - (MLog.java:80) - INFO - MLog clients using log4j logging.
2016-06-16 16:22:48,006 - (C3P0Registry.java:204) - INFO - Initializing c3p0-0.9.1 [built 16-January-2007 14:46:42; debug? true; trace: 10]
2016-06-16 16:22:48,036 - (Dialect.java:120) - INFO - HHH000400: Using dialect: org.hibernate.dialect.PostgreSQLDialect
2016-06-16 16:22:48,036 - (LobCreatorBuilder.java:85) - INFO - HHH000422: Disabling contextual LOB creation as connection was null
2016-06-16 16:22:48,036 - (TransactionFactoryInitiator.java:68) - INFO - HHH000399: Using default transaction strategy (direct JDBC transactions)
2016-06-16 16:22:48,036 - (ASTQueryTranslatorFactory.java:48) - INFO - HHH000397: Using ASTQueryTranslatorFactory
2016-06-16 16:22:48,366 - (AbstractPoolBackedDataSource.java:462) - INFO - Initializing c3p0 pool... com.mchange.v2.c3p0.PoolBackedDataSource@5d6419a [ connectionPoolDataSource -> com.mchange.v2.c3p0.WrapperConnectionPoolDataSource@221e9169 [ acquireIncrement -> 2, acquireRetryAttempts -> 30, acquireRetryDelay -> 1000, autoCommitOnClose -> false, automaticTestTable -> null, breakAfterAcquireFailure -> false, checkoutTimeout -> 0, connectionCustomizerClassName -> null, connectionTesterClassName -> com.mchange.v2.c3p0.impl.DefaultConnectionTester, debugUnreturnedConnectionStackTraces -> false, factoryClassLocation -> null, forceIgnoreUnresolvedTransactions -> false, identityToken -> 1hge0wt9hp5mvpm1dd5hqq|414bf87f, idleConnectionTestPeriod -> 3000, initialPoolSize -> 3, maxAdministrativeTaskTime -> 0, maxConnectionAge -> 0, maxIdleTime -> 30, maxIdleTimeExcessConnections -> 0, maxPoolSize -> 20, maxStatements -> 0, maxStatementsPerConnection -> 0, minPoolSize -> 1, nestedDataSource -> com.mchange.v2.c3p0.DriverManagerDataSource@c8ae18b5 [ description -> null, driverClass -> null, factoryClassLocation -> null, identityToken -> 1hge0wt9hp5mvpm1dd5hqq|3e7542d6, jdbcUrl -> jdbc:postgresql://www.portalsisbras.com.br:5432/db_pedido, properties -> {user=******, password=******, charSet=utf-8} ], preferredTestQuery -> null, propertyCycle -> 0, testConnectionOnCheckin -> false, testConnectionOnCheckout -> false, unreturnedConnectionTimeout -> 0, usesTraditionalReflectiveProxies -> false; userOverrides: {} ], dataSourceName -> null, factoryClassLocation -> null, identityToken -> 1hge0wt9hp5mvpm1dd5hqq|32d2d574, numHelperThreads -> 3 ]
2016-06-17 09:34:52,435 - (Version.java:37) - INFO - HCANN000001: Hibernate Commons Annotations {4.0.1.Final}
2016-06-17 09:34:52,468 - (Version.java:41) - INFO - HHH000412: Hibernate Core {4.0.0.Final}
2016-06-17 09:34:52,469 - (Environment.java:239) - INFO - HHH000206: hibernate.properties not found
2016-06-17 09:34:52,470 - (Environment.java:342) - INFO - HHH000021: Bytecode provider name : javassist
2016-06-17 09:34:52,566 - (Configuration.java:1956) - INFO - HHH000044: Configuring from URL: file:/C:/Users/Sisbras/Documents/NetBeansProjects/shadowsync/target/classes/hibernate.cfg.xml
2016-06-17 09:34:52,617 - (DTDEntityResolver.java:74) - WARN - HHH000223: Recognized obsolete hibernate namespace http://hibernate.sourceforge.net/. Use namespace http://www.hibernate.org/dtd/ instead. Refer to Hibernate 3.6 Migration Guide!
2016-06-17 09:34:52,629 - (Configuration.java:2061) - INFO - HHH000041: Configured SessionFactory: null
2016-06-17 09:34:53,010 - (DriverManagerConnectionProviderImpl.java:90) - INFO - HHH000402: Using Hibernate built-in connection pool (not for production use!)
2016-06-17 09:34:53,098 - (DriverManagerConnectionProviderImpl.java:110) - INFO - HHH000115: Hibernate connection pool size: 20
2016-06-17 09:34:53,099 - (DriverManagerConnectionProviderImpl.java:113) - INFO - HHH000006: Autocommit mode: false
2016-06-17 09:34:53,101 - (DriverManagerConnectionProviderImpl.java:127) - INFO - HHH000401: using driver [org.postgresql.Driver] at URL [jdbc:postgresql://192.168.0.254:5432/DBRIOLUB]
2016-06-17 09:34:53,102 - (DriverManagerConnectionProviderImpl.java:132) - INFO - HHH000046: Connection properties: {user=sa, password=****}
2016-06-17 09:34:56,405 - (Dialect.java:120) - INFO - HHH000400: Using dialect: org.hibernate.dialect.PostgreSQLDialect
2016-06-17 09:34:56,477 - (LobCreatorBuilder.java:120) - INFO - HHH000424: Disabling contextual LOB creation as createClob() method threw error : java.lang.reflect.InvocationTargetException
2016-06-17 09:34:56,551 - (TransactionFactoryInitiator.java:68) - INFO - HHH000399: Using default transaction strategy (direct JDBC transactions)
2016-06-17 09:34:56,680 - (ASTQueryTranslatorFactory.java:48) - INFO - HHH000397: Using ASTQueryTranslatorFactory
2016-06-17 09:34:57,279 - (ConnectionProviderInitiator.java:176) - WARN - HHH000208: org.hibernate.connection.C3P0ConnectionProvider has been deprecated in favor of org.hibernate.service.jdbc.connections.internal.C3P0ConnectionProvider; that provider will be used instead.
2016-06-17 09:34:57,280 - (ConnectionProviderInitiator.java:186) - INFO - HHH000130: Instantiating explicit connection provider: org.hibernate.service.jdbc.connections.internal.C3P0ConnectionProvider
2016-06-17 09:34:57,288 - (C3P0ConnectionProvider.java:128) - INFO - HHH010002: C3P0 using driver: org.postgresql.Driver at URL: jdbc:postgresql://www.portalsisbras.com.br:5432/db_pedido
2016-06-17 09:34:57,289 - (C3P0ConnectionProvider.java:129) - INFO - HHH000046: Connection properties: {user=usr_pedido, password=****, charSet=utf-8}
2016-06-17 09:34:57,289 - (C3P0ConnectionProvider.java:132) - INFO - HHH000006: Autocommit mode: false
2016-06-17 09:34:57,301 - (MLog.java:80) - INFO - MLog clients using log4j logging.
2016-06-17 09:34:57,752 - (C3P0Registry.java:204) - INFO - Initializing c3p0-0.9.1 [built 16-January-2007 14:46:42; debug? true; trace: 10]
2016-06-17 09:34:57,790 - (Dialect.java:120) - INFO - HHH000400: Using dialect: org.hibernate.dialect.PostgreSQLDialect
2016-06-17 09:34:57,790 - (LobCreatorBuilder.java:85) - INFO - HHH000422: Disabling contextual LOB creation as connection was null
2016-06-17 09:34:57,790 - (TransactionFactoryInitiator.java:68) - INFO - HHH000399: Using default transaction strategy (direct JDBC transactions)
2016-06-17 09:34:57,791 - (ASTQueryTranslatorFactory.java:48) - INFO - HHH000397: Using ASTQueryTranslatorFactory
2016-06-17 09:34:58,442 - (AbstractPoolBackedDataSource.java:462) - INFO - Initializing c3p0 pool... com.mchange.v2.c3p0.PoolBackedDataSource@1d03fdd6 [ connectionPoolDataSource -> com.mchange.v2.c3p0.WrapperConnectionPoolDataSource@2b08716b [ acquireIncrement -> 2, acquireRetryAttempts -> 30, acquireRetryDelay -> 1000, autoCommitOnClose -> false, automaticTestTable -> null, breakAfterAcquireFailure -> false, checkoutTimeout -> 0, connectionCustomizerClassName -> null, connectionTesterClassName -> com.mchange.v2.c3p0.impl.DefaultConnectionTester, debugUnreturnedConnectionStackTraces -> false, factoryClassLocation -> null, forceIgnoreUnresolvedTransactions -> false, identityToken -> 1hge0wt9hq6i8stev1zcr|6d9f7a80, idleConnectionTestPeriod -> 3000, initialPoolSize -> 3, maxAdministrativeTaskTime -> 0, maxConnectionAge -> 0, maxIdleTime -> 30, maxIdleTimeExcessConnections -> 0, maxPoolSize -> 20, maxStatements -> 0, maxStatementsPerConnection -> 0, minPoolSize -> 1, nestedDataSource -> com.mchange.v2.c3p0.DriverManagerDataSource@b868d4c [ description -> null, driverClass -> null, factoryClassLocation -> null, identityToken -> 1hge0wt9hq6i8stev1zcr|13d9b21f, jdbcUrl -> jdbc:postgresql://www.portalsisbras.com.br:5432/db_pedido, properties -> {user=******, password=******, charSet=utf-8} ], preferredTestQuery -> null, propertyCycle -> 0, testConnectionOnCheckin -> false, testConnectionOnCheckout -> false, unreturnedConnectionTimeout -> 0, usesTraditionalReflectiveProxies -> false; userOverrides: {} ], dataSourceName -> null, factoryClassLocation -> null, identityToken -> 1hge0wt9hq6i8stev1zcr|178213b, numHelperThreads -> 3 ]
2016-06-17 09:35:30,608 - (Version.java:37) - INFO - HCANN000001: Hibernate Commons Annotations {4.0.1.Final}
2016-06-17 09:35:30,619 - (Version.java:41) - INFO - HHH000412: Hibernate Core {4.0.0.Final}
2016-06-17 09:35:30,620 - (Environment.java:239) - INFO - HHH000206: hibernate.properties not found
2016-06-17 09:35:30,622 - (Environment.java:342) - INFO - HHH000021: Bytecode provider name : javassist
2016-06-17 09:35:30,634 - (Configuration.java:1956) - INFO - HHH000044: Configuring from URL: file:/C:/Users/Sisbras/Documents/NetBeansProjects/shadowsync/target/classes/hibernate.cfg.xml
2016-06-17 09:35:30,648 - (DTDEntityResolver.java:74) - WARN - HHH000223: Recognized obsolete hibernate namespace http://hibernate.sourceforge.net/. Use namespace http://www.hibernate.org/dtd/ instead. Refer to Hibernate 3.6 Migration Guide!
2016-06-17 09:35:30,668 - (Configuration.java:2061) - INFO - HHH000041: Configured SessionFactory: null
2016-06-17 09:35:30,983 - (DriverManagerConnectionProviderImpl.java:90) - INFO - HHH000402: Using Hibernate built-in connection pool (not for production use!)
2016-06-17 09:35:30,987 - (DriverManagerConnectionProviderImpl.java:110) - INFO - HHH000115: Hibernate connection pool size: 20
2016-06-17 09:35:30,988 - (DriverManagerConnectionProviderImpl.java:113) - INFO - HHH000006: Autocommit mode: false
2016-06-17 09:35:30,988 - (DriverManagerConnectionProviderImpl.java:127) - INFO - HHH000401: using driver [org.postgresql.Driver] at URL [jdbc:postgresql://192.168.0.254:5432/DBRIOLUB]
2016-06-17 09:35:30,989 - (DriverManagerConnectionProviderImpl.java:132) - INFO - HHH000046: Connection properties: {user=sa, password=****}
2016-06-17 09:35:34,033 - (Dialect.java:120) - INFO - HHH000400: Using dialect: org.hibernate.dialect.PostgreSQLDialect
2016-06-17 09:35:34,043 - (LobCreatorBuilder.java:120) - INFO - HHH000424: Disabling contextual LOB creation as createClob() method threw error : java.lang.reflect.InvocationTargetException
2016-06-17 09:35:34,048 - (TransactionFactoryInitiator.java:68) - INFO - HHH000399: Using default transaction strategy (direct JDBC transactions)
2016-06-17 09:35:34,050 - (ASTQueryTranslatorFactory.java:48) - INFO - HHH000397: Using ASTQueryTranslatorFactory
2016-06-17 09:35:34,567 - (ConnectionProviderInitiator.java:176) - WARN - HHH000208: org.hibernate.connection.C3P0ConnectionProvider has been deprecated in favor of org.hibernate.service.jdbc.connections.internal.C3P0ConnectionProvider; that provider will be used instead.
2016-06-17 09:35:34,567 - (ConnectionProviderInitiator.java:186) - INFO - HHH000130: Instantiating explicit connection provider: org.hibernate.service.jdbc.connections.internal.C3P0ConnectionProvider
2016-06-17 09:35:34,579 - (C3P0ConnectionProvider.java:128) - INFO - HHH010002: C3P0 using driver: org.postgresql.Driver at URL: jdbc:postgresql://www.portalsisbras.com.br:5432/db_pedido
2016-06-17 09:35:34,580 - (C3P0ConnectionProvider.java:129) - INFO - HHH000046: Connection properties: {user=usr_pedido, password=****, charSet=utf-8}
2016-06-17 09:35:34,580 - (C3P0ConnectionProvider.java:132) - INFO - HHH000006: Autocommit mode: false
2016-06-17 09:35:34,588 - (MLog.java:80) - INFO - MLog clients using log4j logging.
2016-06-17 09:35:34,681 - (C3P0Registry.java:204) - INFO - Initializing c3p0-0.9.1 [built 16-January-2007 14:46:42; debug? true; trace: 10]
2016-06-17 09:35:34,713 - (Dialect.java:120) - INFO - HHH000400: Using dialect: org.hibernate.dialect.PostgreSQLDialect
2016-06-17 09:35:34,714 - (LobCreatorBuilder.java:85) - INFO - HHH000422: Disabling contextual LOB creation as connection was null
2016-06-17 09:35:34,714 - (TransactionFactoryInitiator.java:68) - INFO - HHH000399: Using default transaction strategy (direct JDBC transactions)
2016-06-17 09:35:34,715 - (ASTQueryTranslatorFactory.java:48) - INFO - HHH000397: Using ASTQueryTranslatorFactory
2016-06-17 09:35:35,102 - (AbstractPoolBackedDataSource.java:462) - INFO - Initializing c3p0 pool... com.mchange.v2.c3p0.PoolBackedDataSource@d1cc4ee7 [ connectionPoolDataSource -> com.mchange.v2.c3p0.WrapperConnectionPoolDataSource@f4a427a [ acquireIncrement -> 2, acquireRetryAttempts -> 30, acquireRetryDelay -> 1000, autoCommitOnClose -> false, automaticTestTable -> null, breakAfterAcquireFailure -> false, checkoutTimeout -> 0, connectionCustomizerClassName -> null, connectionTesterClassName -> com.mchange.v2.c3p0.impl.DefaultConnectionTester, debugUnreturnedConnectionStackTraces -> false, factoryClassLocation -> null, forceIgnoreUnresolvedTransactions -> false, identityToken -> 1hge0wt9hq6j1hm2yq69i|6d9f7a80, idleConnectionTestPeriod -> 3000, initialPoolSize -> 3, maxAdministrativeTaskTime -> 0, maxConnectionAge -> 0, maxIdleTime -> 30, maxIdleTimeExcessConnections -> 0, maxPoolSize -> 20, maxStatements -> 0, maxStatementsPerConnection -> 0, minPoolSize -> 1, nestedDataSource -> com.mchange.v2.c3p0.DriverManagerDataSource@efc85e5b [ description -> null, driverClass -> null, factoryClassLocation -> null, identityToken -> 1hge0wt9hq6j1hm2yq69i|13d9b21f, jdbcUrl -> jdbc:postgresql://www.portalsisbras.com.br:5432/db_pedido, properties -> {user=******, password=******, charSet=utf-8} ], preferredTestQuery -> null, propertyCycle -> 0, testConnectionOnCheckin -> false, testConnectionOnCheckout -> false, unreturnedConnectionTimeout -> 0, usesTraditionalReflectiveProxies -> false; userOverrides: {} ], dataSourceName -> null, factoryClassLocation -> null, identityToken -> 1hge0wt9hq6j1hm2yq69i|178213b, numHelperThreads -> 3 ]
2016-06-18 10:40:19,669 - (Version.java:37) - INFO - HCANN000001: Hibernate Commons Annotations {4.0.1.Final}
2016-06-18 10:40:19,733 - (Version.java:41) - INFO - HHH000412: Hibernate Core {4.0.0.Final}
2016-06-18 10:40:19,735 - (Environment.java:239) - INFO - HHH000206: hibernate.properties not found
2016-06-18 10:40:19,737 - (Environment.java:342) - INFO - HHH000021: Bytecode provider name : javassist
2016-06-18 10:40:19,786 - (Configuration.java:1956) - INFO - HHH000044: Configuring from URL: file:/C:/Users/Sisbras/Documents/NetBeansProjects/shadowsync/target/classes/hibernate.cfg.xml
2016-06-18 10:40:19,801 - (DTDEntityResolver.java:74) - WARN - HHH000223: Recognized obsolete hibernate namespace http://hibernate.sourceforge.net/. Use namespace http://www.hibernate.org/dtd/ instead. Refer to Hibernate 3.6 Migration Guide!
2016-06-18 10:40:19,834 - (Configuration.java:2061) - INFO - HHH000041: Configured SessionFactory: null
2016-06-18 10:40:20,195 - (DriverManagerConnectionProviderImpl.java:90) - INFO - HHH000402: Using Hibernate built-in connection pool (not for production use!)
2016-06-18 10:40:20,215 - (DriverManagerConnectionProviderImpl.java:110) - INFO - HHH000115: Hibernate connection pool size: 20
2016-06-18 10:40:20,215 - (DriverManagerConnectionProviderImpl.java:113) - INFO - HHH000006: Autocommit mode: false
2016-06-18 10:40:20,216 - (DriverManagerConnectionProviderImpl.java:127) - INFO - HHH000401: using driver [org.postgresql.Driver] at URL [jdbc:postgresql://192.168.0.254:5432/DBRIOLUB]
2016-06-18 10:40:20,216 - (DriverManagerConnectionProviderImpl.java:132) - INFO - HHH000046: Connection properties: {user=sa, password=****}
2016-06-18 10:40:23,064 - (Dialect.java:120) - INFO - HHH000400: Using dialect: org.hibernate.dialect.PostgreSQLDialect
2016-06-18 10:40:23,078 - (LobCreatorBuilder.java:120) - INFO - HHH000424: Disabling contextual LOB creation as createClob() method threw error : java.lang.reflect.InvocationTargetException
2016-06-18 10:40:23,094 - (TransactionFactoryInitiator.java:68) - INFO - HHH000399: Using default transaction strategy (direct JDBC transactions)
2016-06-18 10:40:23,098 - (ASTQueryTranslatorFactory.java:48) - INFO - HHH000397: Using ASTQueryTranslatorFactory
2016-06-18 10:40:23,686 - (ConnectionProviderInitiator.java:176) - WARN - HHH000208: org.hibernate.connection.C3P0ConnectionProvider has been deprecated in favor of org.hibernate.service.jdbc.connections.internal.C3P0ConnectionProvider; that provider will be used instead.
2016-06-18 10:40:23,687 - (ConnectionProviderInitiator.java:186) - INFO - HHH000130: Instantiating explicit connection provider: org.hibernate.service.jdbc.connections.internal.C3P0ConnectionProvider
2016-06-18 10:40:23,711 - (C3P0ConnectionProvider.java:128) - INFO - HHH010002: C3P0 using driver: org.postgresql.Driver at URL: jdbc:postgresql://www.portalsisbras.com.br:5432/db_pedido
2016-06-18 10:40:23,711 - (C3P0ConnectionProvider.java:129) - INFO - HHH000046: Connection properties: {user=usr_pedido, password=****, charSet=utf-8}
2016-06-18 10:40:23,712 - (C3P0ConnectionProvider.java:132) - INFO - HHH000006: Autocommit mode: false
2016-06-18 10:40:23,733 - (MLog.java:80) - INFO - MLog clients using log4j logging.
2016-06-18 10:40:23,847 - (C3P0Registry.java:204) - INFO - Initializing c3p0-0.9.1 [built 16-January-2007 14:46:42; debug? true; trace: 10]
2016-06-18 10:40:23,880 - (Dialect.java:120) - INFO - HHH000400: Using dialect: org.hibernate.dialect.PostgreSQLDialect
2016-06-18 10:40:23,880 - (LobCreatorBuilder.java:85) - INFO - HHH000422: Disabling contextual LOB creation as connection was null
2016-06-18 10:40:23,881 - (TransactionFactoryInitiator.java:68) - INFO - HHH000399: Using default transaction strategy (direct JDBC transactions)
2016-06-18 10:40:23,881 - (ASTQueryTranslatorFactory.java:48) - INFO - HHH000397: Using ASTQueryTranslatorFactory
2016-06-18 10:40:24,312 - (AbstractPoolBackedDataSource.java:462) - INFO - Initializing c3p0 pool... com.mchange.v2.c3p0.PoolBackedDataSource@d233a30 [ connectionPoolDataSource -> com.mchange.v2.c3p0.WrapperConnectionPoolDataSource@3ed0c051 [ acquireIncrement -> 2, acquireRetryAttempts -> 30, acquireRetryDelay -> 1000, autoCommitOnClose -> false, automaticTestTable -> null, breakAfterAcquireFailure -> false, checkoutTimeout -> 0, connectionCustomizerClassName -> null, connectionTesterClassName -> com.mchange.v2.c3p0.impl.DefaultConnectionTester, debugUnreturnedConnectionStackTraces -> false, factoryClassLocation -> null, forceIgnoreUnresolvedTransactions -> false, identityToken -> 1hge0wt9hroa91q1x86g16|6d9f7a80, idleConnectionTestPeriod -> 3000, initialPoolSize -> 3, maxAdministrativeTaskTime -> 0, maxConnectionAge -> 0, maxIdleTime -> 30, maxIdleTimeExcessConnections -> 0, maxPoolSize -> 20, maxStatements -> 0, maxStatementsPerConnection -> 0, minPoolSize -> 1, nestedDataSource -> com.mchange.v2.c3p0.DriverManagerDataSource@1f4edc32 [ description -> null, driverClass -> null, factoryClassLocation -> null, identityToken -> 1hge0wt9hroa91q1x86g16|13d9b21f, jdbcUrl -> jdbc:postgresql://www.portalsisbras.com.br:5432/db_pedido, properties -> {user=******, password=******, charSet=utf-8} ], preferredTestQuery -> null, propertyCycle -> 0, testConnectionOnCheckin -> false, testConnectionOnCheckout -> false, unreturnedConnectionTimeout -> 0, usesTraditionalReflectiveProxies -> false; userOverrides: {} ], dataSourceName -> null, factoryClassLocation -> null, identityToken -> 1hge0wt9hroa91q1x86g16|178213b, numHelperThreads -> 3 ]
2016-06-20 11:21:24,289 - (Version.java:37) - INFO - HCANN000001: Hibernate Commons Annotations {4.0.1.Final}
2016-06-20 11:21:24,309 - (Version.java:41) - INFO - HHH000412: Hibernate Core {4.0.0.Final}
2016-06-20 11:21:24,310 - (Environment.java:239) - INFO - HHH000206: hibernate.properties not found
2016-06-20 11:21:24,311 - (Environment.java:342) - INFO - HHH000021: Bytecode provider name : javassist
2016-06-20 11:21:24,331 - (Configuration.java:1956) - INFO - HHH000044: Configuring from URL: file:/C:/Users/Sisbras/Documents/NetBeansProjects/shadowsync/target/classes/hibernate.cfg.xml
2016-06-20 11:21:24,359 - (DTDEntityResolver.java:74) - WARN - HHH000223: Recognized obsolete hibernate namespace http://hibernate.sourceforge.net/. Use namespace http://www.hibernate.org/dtd/ instead. Refer to Hibernate 3.6 Migration Guide!
2016-06-20 11:21:24,371 - (Configuration.java:2061) - INFO - HHH000041: Configured SessionFactory: null
2016-06-20 11:21:25,401 - (DriverManagerConnectionProviderImpl.java:90) - INFO - HHH000402: Using Hibernate built-in connection pool (not for production use!)
2016-06-20 11:21:25,432 - (DriverManagerConnectionProviderImpl.java:110) - INFO - HHH000115: Hibernate connection pool size: 20
2016-06-20 11:21:25,432 - (DriverManagerConnectionProviderImpl.java:113) - INFO - HHH000006: Autocommit mode: false
2016-06-20 11:21:25,433 - (DriverManagerConnectionProviderImpl.java:127) - INFO - HHH000401: using driver [org.postgresql.Driver] at URL [jdbc:postgresql://192.168.0.254:5432/DBRIOLUB]
2016-06-20 11:21:25,433 - (DriverManagerConnectionProviderImpl.java:132) - INFO - HHH000046: Connection properties: {user=sa, password=****}
2016-06-20 11:21:28,923 - (Dialect.java:120) - INFO - HHH000400: Using dialect: org.hibernate.dialect.PostgreSQLDialect
2016-06-20 11:21:28,949 - (LobCreatorBuilder.java:120) - INFO - HHH000424: Disabling contextual LOB creation as createClob() method threw error : java.lang.reflect.InvocationTargetException
2016-06-20 11:21:28,953 - (TransactionFactoryInitiator.java:68) - INFO - HHH000399: Using default transaction strategy (direct JDBC transactions)
2016-06-20 11:21:28,956 - (ASTQueryTranslatorFactory.java:48) - INFO - HHH000397: Using ASTQueryTranslatorFactory
2016-06-20 11:21:29,598 - (ConnectionProviderInitiator.java:176) - WARN - HHH000208: org.hibernate.connection.C3P0ConnectionProvider has been deprecated in favor of org.hibernate.service.jdbc.connections.internal.C3P0ConnectionProvider; that provider will be used instead.
2016-06-20 11:21:29,599 - (ConnectionProviderInitiator.java:186) - INFO - HHH000130: Instantiating explicit connection provider: org.hibernate.service.jdbc.connections.internal.C3P0ConnectionProvider
2016-06-20 11:21:29,610 - (C3P0ConnectionProvider.java:128) - INFO - HHH010002: C3P0 using driver: org.postgresql.Driver at URL: jdbc:postgresql://www.portalsisbras.com.br:5432/db_pedido
2016-06-20 11:21:29,611 - (C3P0ConnectionProvider.java:129) - INFO - HHH000046: Connection properties: {user=usr_pedido, password=****, charSet=utf-8}
2016-06-20 11:21:29,611 - (C3P0ConnectionProvider.java:132) - INFO - HHH000006: Autocommit mode: false
2016-06-20 11:21:29,619 - (MLog.java:80) - INFO - MLog clients using log4j logging.
2016-06-20 11:21:29,903 - (C3P0Registry.java:204) - INFO - Initializing c3p0-0.9.1 [built 16-January-2007 14:46:42; debug? true; trace: 10]
2016-06-20 11:21:29,924 - (Dialect.java:120) - INFO - HHH000400: Using dialect: org.hibernate.dialect.PostgreSQLDialect
2016-06-20 11:21:29,924 - (LobCreatorBuilder.java:85) - INFO - HHH000422: Disabling contextual LOB creation as connection was null
2016-06-20 11:21:29,925 - (TransactionFactoryInitiator.java:68) - INFO - HHH000399: Using default transaction strategy (direct JDBC transactions)
2016-06-20 11:21:29,925 - (ASTQueryTranslatorFactory.java:48) - INFO - HHH000397: Using ASTQueryTranslatorFactory
2016-06-20 11:21:30,351 - (AbstractPoolBackedDataSource.java:462) - INFO - Initializing c3p0 pool... com.mchange.v2.c3p0.PoolBackedDataSource@2001ae6a [ connectionPoolDataSource -> com.mchange.v2.c3p0.WrapperConnectionPoolDataSource@54c19d4d [ acquireIncrement -> 2, acquireRetryAttempts -> 30, acquireRetryDelay -> 1000, autoCommitOnClose -> false, automaticTestTable -> null, breakAfterAcquireFailure -> false, checkoutTimeout -> 0, connectionCustomizerClassName -> null, connectionTesterClassName -> com.mchange.v2.c3p0.impl.DefaultConnectionTester, debugUnreturnedConnectionStackTraces -> false, factoryClassLocation -> null, forceIgnoreUnresolvedTransactions -> false, identityToken -> 1hge0wt9hukmt591pt1ijq|18913b1e, idleConnectionTestPeriod -> 3000, initialPoolSize -> 3, maxAdministrativeTaskTime -> 0, maxConnectionAge -> 0, maxIdleTime -> 30, maxIdleTimeExcessConnections -> 0, maxPoolSize -> 20, maxStatements -> 0, maxStatementsPerConnection -> 0, minPoolSize -> 1, nestedDataSource -> com.mchange.v2.c3p0.DriverManagerDataSource@aeed908b [ description -> null, driverClass -> null, factoryClassLocation -> null, identityToken -> 1hge0wt9hukmt591pt1ijq|3c0c68cb, jdbcUrl -> jdbc:postgresql://www.portalsisbras.com.br:5432/db_pedido, properties -> {user=******, password=******, charSet=utf-8} ], preferredTestQuery -> null, propertyCycle -> 0, testConnectionOnCheckin -> false, testConnectionOnCheckout -> false, unreturnedConnectionTimeout -> 0, usesTraditionalReflectiveProxies -> false; userOverrides: {} ], dataSourceName -> null, factoryClassLocation -> null, identityToken -> 1hge0wt9hukmt591pt1ijq|4879bb32, numHelperThreads -> 3 ]
2016-06-20 11:38:31,374 - (Version.java:37) - INFO - HCANN000001: Hibernate Commons Annotations {4.0.1.Final}
2016-06-20 11:38:31,390 - (Version.java:41) - INFO - HHH000412: Hibernate Core {4.0.0.Final}
2016-06-20 11:38:31,392 - (Environment.java:239) - INFO - HHH000206: hibernate.properties not found
2016-06-20 11:38:31,393 - (Environment.java:342) - INFO - HHH000021: Bytecode provider name : javassist
2016-06-20 11:38:31,411 - (Configuration.java:1956) - INFO - HHH000044: Configuring from URL: file:/C:/Users/Sisbras/Documents/NetBeansProjects/shadowsync/target/classes/hibernate.cfg.xml
2016-06-20 11:38:31,434 - (DTDEntityResolver.java:74) - WARN - HHH000223: Recognized obsolete hibernate namespace http://hibernate.sourceforge.net/. Use namespace http://www.hibernate.org/dtd/ instead. Refer to Hibernate 3.6 Migration Guide!
2016-06-20 11:38:31,455 - (Configuration.java:2061) - INFO - HHH000041: Configured SessionFactory: null
2016-06-20 11:38:31,821 - (DriverManagerConnectionProviderImpl.java:90) - INFO - HHH000402: Using Hibernate built-in connection pool (not for production use!)
2016-06-20 11:38:31,824 - (DriverManagerConnectionProviderImpl.java:110) - INFO - HHH000115: Hibernate connection pool size: 20
2016-06-20 11:38:31,825 - (DriverManagerConnectionProviderImpl.java:113) - INFO - HHH000006: Autocommit mode: false
2016-06-20 11:38:31,825 - (DriverManagerConnectionProviderImpl.java:127) - INFO - HHH000401: using driver [org.postgresql.Driver] at URL [jdbc:postgresql://192.168.0.254:5432/DBRIOLUB]
2016-06-20 11:38:31,825 - (DriverManagerConnectionProviderImpl.java:132) - INFO - HHH000046: Connection properties: {user=sa, password=****}
2016-06-20 11:38:34,985 - (Dialect.java:120) - INFO - HHH000400: Using dialect: org.hibernate.dialect.PostgreSQLDialect
2016-06-20 11:38:34,999 - (LobCreatorBuilder.java:120) - INFO - HHH000424: Disabling contextual LOB creation as createClob() method threw error : java.lang.reflect.InvocationTargetException
2016-06-20 11:38:35,003 - (TransactionFactoryInitiator.java:68) - INFO - HHH000399: Using default transaction strategy (direct JDBC transactions)
2016-06-20 11:38:35,006 - (ASTQueryTranslatorFactory.java:48) - INFO - HHH000397: Using ASTQueryTranslatorFactory
2016-06-20 11:38:35,544 - (ConnectionProviderInitiator.java:176) - WARN - HHH000208: org.hibernate.connection.C3P0ConnectionProvider has been deprecated in favor of org.hibernate.service.jdbc.connections.internal.C3P0ConnectionProvider; that provider will be used instead.
2016-06-20 11:38:35,545 - (ConnectionProviderInitiator.java:186) - INFO - HHH000130: Instantiating explicit connection provider: org.hibernate.service.jdbc.connections.internal.C3P0ConnectionProvider
2016-06-20 11:38:35,556 - (C3P0ConnectionProvider.java:128) - INFO - HHH010002: C3P0 using driver: org.postgresql.Driver at URL: jdbc:postgresql://www.portalsisbras.com.br:5432/db_pedido
2016-06-20 11:38:35,557 - (C3P0ConnectionProvider.java:129) - INFO - HHH000046: Connection properties: {user=usr_pedido, password=****, charSet=utf-8}
2016-06-20 11:38:35,558 - (C3P0ConnectionProvider.java:132) - INFO - HHH000006: Autocommit mode: false
2016-06-20 11:38:35,566 - (MLog.java:80) - INFO - MLog clients using log4j logging.
2016-06-20 11:38:35,655 - (C3P0Registry.java:204) - INFO - Initializing c3p0-0.9.1 [built 16-January-2007 14:46:42; debug? true; trace: 10]
2016-06-20 11:38:35,687 - (Dialect.java:120) - INFO - HHH000400: Using dialect: org.hibernate.dialect.PostgreSQLDialect
2016-06-20 11:38:35,687 - (LobCreatorBuilder.java:85) - INFO - HHH000422: Disabling contextual LOB creation as connection was null
2016-06-20 11:38:35,688 - (TransactionFactoryInitiator.java:68) - INFO - HHH000399: Using default transaction strategy (direct JDBC transactions)
2016-06-20 11:38:35,688 - (ASTQueryTranslatorFactory.java:48) - INFO - HHH000397: Using ASTQueryTranslatorFactory
2016-06-20 11:38:36,060 - (AbstractPoolBackedDataSource.java:462) - INFO - Initializing c3p0 pool... com.mchange.v2.c3p0.PoolBackedDataSource@d441a70b [ connectionPoolDataSource -> com.mchange.v2.c3p0.WrapperConnectionPoolDataSource@5b7feed6 [ acquireIncrement -> 2, acquireRetryAttempts -> 30, acquireRetryDelay -> 1000, autoCommitOnClose -> false, automaticTestTable -> null, breakAfterAcquireFailure -> false, checkoutTimeout -> 0, connectionCustomizerClassName -> null, connectionTesterClassName -> com.mchange.v2.c3p0.impl.DefaultConnectionTester, debugUnreturnedConnectionStackTraces -> false, factoryClassLocation -> null, forceIgnoreUnresolvedTransactions -> false, identityToken -> 1hge0wt9hul8sot1mogcgf|6d9f7a80, idleConnectionTestPeriod -> 3000, initialPoolSize -> 3, maxAdministrativeTaskTime -> 0, maxConnectionAge -> 0, maxIdleTime -> 30, maxIdleTimeExcessConnections -> 0, maxPoolSize -> 20, maxStatements -> 0, maxStatementsPerConnection -> 0, minPoolSize -> 1, nestedDataSource -> com.mchange.v2.c3p0.DriverManagerDataSource@3bfe0ab7 [ description -> null, driverClass -> null, factoryClassLocation -> null, identityToken -> 1hge0wt9hul8sot1mogcgf|13d9b21f, jdbcUrl -> jdbc:postgresql://www.portalsisbras.com.br:5432/db_pedido, properties -> {user=******, password=******, charSet=utf-8} ], preferredTestQuery -> null, propertyCycle -> 0, testConnectionOnCheckin -> false, testConnectionOnCheckout -> false, unreturnedConnectionTimeout -> 0, usesTraditionalReflectiveProxies -> false; userOverrides: {} ], dataSourceName -> null, factoryClassLocation -> null, identityToken -> 1hge0wt9hul8sot1mogcgf|178213b, numHelperThreads -> 3 ]
